Data structures and objects
…
```
[1] TRUE
```

---
## Tibbles

Example of a tibble.

```r
( my_tibble <- as_tibble(my_first_sublist) )
```

```
# A tibble: 10 x 3
  my_integers my_factor my_logicals
        <int>    <fctr>       <lgl>
1           1         m       FALSE
2           2         m       FALSE
3           3         f       FALSE
4           4         m       FALSE
5           5         f        TRUE
6           6         m        TRUE
# ... with 4 more rows
```
…
```
[1] "integer"
```

---
## Subsetting tibbles

Extracting multiple columns from a tibble.

```r
select(my_tibble, my_integers, my_logicals)
```

```
# A tibble: 10 x 2
  my_integers my_logicals
        <int>       <lgl>
1           1       FALSE
2           2       FALSE
3           3       FALSE
4           4       FALSE
5           5        TRUE
6           6        TRUE
# ... with 4 more rows
```

---
## Subsetting tibbles

Extracting multiple columns from a tibble.

```r
select(my_tibble, ends_with("s"))
```

```
# A tibble: 10 x 2
  my_integers my_logicals
        <int>       <lgl>
1           1       FALSE
2           2       FALSE
3           3       FALSE
4           4       FALSE
5           5        TRUE
6           6        TRUE
# ... with 4 more rows
```
…
