Graphics with ggplot2
…
<img src="ggplot2_files/figure-html/simple_bar_fix-1.png" width="768" style="display: block; margin: auto;" />

---
## Ordering the counts

```r
ordered_counts <- count(traffic, `machine name`) %>% 
  arrange(n)

ordered_counts
```

```
# A tibble: 37 x 2
  `machine name`     n
           <chr> <int>
1           cs18  3814
2           cs20  4764
3          kanga  5076
4          pluto  5253
5         minnie  5450
6           cs17  5847
# ... with 31 more rows
```
…
<img src="ggplot2_files/figure-html/bar_options-1.png" width="336" /><img src="ggplot2_files/figure-html/bar_options-2.png" width="336" />

---
## Daily summary data set

```r
daily_traffic <- read_csv("http://math.ku.dk/~richard/Annalect/daily_traffic.csv")
daily_traffic
```

```
# A tibble: 2,622 x 5
  `machine name`       date dl_count  size_mb total_dl_count
           <chr>     <date>    <int>    <dbl>          <int>
1         animal 1995-01-18       21 0.027082             21
2         animal 1995-01-25        5 0.009908             26
3         animal 1995-01-26      208 0.498212            234
4         animal 1995-01-27       22 1.753592            256
5         animal 1995-01-29       87 0.236319            343
6         animal 1995-01-30       32 0.025352            375
# ... with 2,616 more rows
```
…
