Data and tidyverse
…
--

Filtering requires one or more *logical predicates* like `size > 0`. These
are expressions in terms of columns that evaluate to either `TRUE` or `FALSE`. 

---

## Combining filters

```r
filter(traffic, `machine name` != "cs21" & size > 200000)
```

```
# A tibble: 2,397 x 6
  `machine name` `user id`   size     time       date   month
           <chr>     <int>  <int>    <dbl>     <date>   <chr>
1           cs17    798848 225040 13.63997 1995-04-07 1995-04
2           cs20    588592 426979 46.83814 1995-04-10 1995-04
3           cs20    577109 635865 42.89764 1995-04-20 1995-04
4           cs20    634311 212869 18.82561 1995-04-20 1995-04
5           cs20     81176 240380 22.74180 1995-04-20 1995-04
6           cs20    647825 212536 86.34142 1995-04-22 1995-04
# ... with 2,391 more rows
```
…
---

## Counting

```r
count(traffic, `machine name`, slow)
```

```
Source: local data frame [74 x 3]
Groups: machine name [?]

# A tibble: 74 x 3
  `machine name`  slow     n
           <chr> <chr> <int>
1         animal    No  7067
2         animal   Yes   325
3         beaker    No 11462
4         beaker   Yes   457
5           bugs    No  9373
6           bugs   Yes   590
# ... with 68 more rows
```
…
No missing values for this variable!

---

## Chaining operations

```r
count(traffic, `machine name`) %>% 
  arrange(n)
```

```
# A tibble: 37 x 2
  `machine name`     n
           <chr> <int>
1           cs18  3814
2           cs20  4764
3          kanga  5076
4          pluto  5253
5         minnie  5450
6           cs17  5847
# ... with 31 more rows
```
…
