Statistical models in R
…
* *Observation = fitted value + residual*

---
## Fitted values and residuals
  
* Fitted values and residuals may be extracted using the generic functions `predict` and `residuals`.

* The values can be appended to the data set using the dplyr function `bind_cols`.

```r
bind_cols(traffic, fit = predict(mod1), res = residuals(mod1))
```

```
# A tibble: 234 x 6
# Groups:   machine name [?]
  `machine name`       date      size         time       fit        res
           <chr>     <date>     <dbl>        <dbl>     <dbl>      <dbl>
1           cs18 1994-11-22 22.374257 149.88951093 68.616350  81.273161
2           cs18 1994-11-23 12.164511  25.64494058 37.985246 -12.340305
3           cs18 1994-11-24  8.051844   6.48303922 25.646493 -19.163454
4           cs18 1994-11-25  0.065492   0.30689892  1.685978  -1.379079
5           cs18 1994-11-28  0.625010   1.68527002  3.364634  -1.679364
6           cs18 1994-11-29  0.020119   0.05921128  1.549850  -1.490639
# ... with 228 more rows
```
…
