Tibbles and dplyr
…
---

## Cross tabulation

```r
cross_tab <- count(traffic, `machine name`, month)
cross_tab
```

```
Source: local data frame [193 x 3]
Groups: machine name [?]

# A tibble: 193 x 3
  `machine name`   month     n
           <chr>   <chr> <int>
1         animal 1995-01   305
2         animal 1995-02  2635
3         animal 1995-03  1542
4         animal 1995-04  1641
5         animal 1995-05  1269
6         beaker 1995-01   972
# ... with 187 more rows
```
…
---

## Constructing untidy data

```r
cross_tab <- spread(cross_tab, month, n)
cross_tab
```

```
Source: local data frame [37 x 8]
Groups: machine name [37]

# A tibble: 37 x 8
  `machine name` `1994-11` `1994-12` `1995-01`
*          <chr>     <int>     <int>     <int>
1         animal        NA        NA       305
2         beaker        NA        NA       972
3           bugs        NA        NA       399
4         bunsen        NA        NA       497
5           cs17       668      1264      1210
6           cs18       783       878       952
# ... with 31 more rows, and 4 more variables: `1995-02` <int>,
#   `1995-03` <int>, `1995-04` <int>, `1995-05` <int>
```
…
## Converting back to a tidy data table

```r
cross_tab <- gather(cross_tab, key = "month", 
                    value = "n", 
                    - `machine name`)  ## It's a minus sign in front of `machine name`
cross_tab
```

```
Source: local data frame [259 x 3]
Groups: machine name [37]

# A tibble: 259 x 3
  `machine name`   month     n
           <chr>   <chr> <int>
1         animal 1994-11    NA
2         beaker 1994-11    NA
3           bugs 1994-11    NA
4         bunsen 1994-11    NA
5           cs17 1994-11   668
6           cs18 1994-11   783
# ... with 253 more rows
```
…
---

## Getting only the complete cases

```r
complete(cross_tab, n) 
```

```
Source: local data frame [193 x 3]
Groups: machine name [37]

# A tibble: 193 x 3
  `machine name`     n   month
           <chr> <int>   <chr>
1         animal   305 1995-01
2         animal  1269 1995-05
3         animal  1542 1995-03
4         animal  1641 1995-04
5         animal  2635 1995-02
6         beaker   972 1995-01
# ... with 187 more rows
```
…
## Inner joining

```r
inner_join(traffic_size, cross_tab)
```

```
Joining, by = c("machine name", "month")
```

```
Source: local data frame [121 x 4]
Groups: machine name [?]

# A tibble: 121 x 4
  `machine name`   month sum_size     n
           <chr>   <chr>    <int> <int>
1         animal 1995-01  3633345   305
2         animal 1995-02 39750433  2635
3         animal 1995-03 62801610  1542
4         beaker 1995-01 17901177   972
5         beaker 1995-02 38563224  3657
6         beaker 1995-03 31885674  2157
# ... with 115 more rows
```
…
##  Left joining

```r
left_join(traffic_size, cross_tab)
```

```
Joining, by = c("machine name", "month")
```

```
Source: local data frame [193 x 4]
Groups: machine name [?]

# A tibble: 193 x 4
  `machine name`   month sum_size     n
           <chr>   <chr>    <int> <int>
1         animal 1995-01  3633345   305
2         animal 1995-02 39750433  2635
3         animal 1995-03 62801610  1542
4         animal 1995-04 30499677    NA
5         animal 1995-05 19094797    NA
6         beaker 1995-01 17901177   972
# ... with 187 more rows
```
…
## Right joining

```r
right_join(traffic_size, cross_tab)
```

```
Joining, by = c("machine name", "month")
```

```
Source: local data frame [185 x 4]
Groups: machine name [?]

# A tibble: 185 x 4
  `machine name`   month sum_size     n
           <chr>   <chr>    <int> <int>
1         animal 1994-11       NA    NA
2         beaker 1994-11       NA    NA
3           bugs 1994-11       NA    NA
4         bunsen 1994-11       NA    NA
5           cs17 1994-11 20857172   668
6           cs18 1994-11 43510689   783
# ... with 179 more rows
```
…
## Full joining

```r
full_join(traffic_size, cross_tab)
```

```
Joining, by = c("machine name", "month")
```

```
Source: local data frame [257 x 4]
Groups: machine name [?]

# A tibble: 257 x 4
  `machine name`   month sum_size     n
           <chr>   <chr>    <int> <int>
1         animal 1995-01  3633345   305
2         animal 1995-02 39750433  2635
3         animal 1995-03 62801610  1542
4         animal 1995-04 30499677    NA
5         animal 1995-05 19094797    NA
6         beaker 1995-01 17901177   972
# ... with 251 more rows
```
…
