Working with data
…
The `group_by` function doesn't do much but setting the grouping variable.

---

## Counting by group

```r
count(traffic)
```

```
# A tibble: 37 x 2
  `machine name`     n
           <chr> <int>
1         animal  7392
2         beaker 11919
3           bugs  9963
4         bunsen  7108
5           cs17  5847
6           cs18  3814
# ... with 31 more rows
```
…
---

## Summarizing by group

```r
traffic %>% 
  summarize(mean_size = mean(size)) %>% 
  arrange(mean_size)
```

```
# A tibble: 37 x 2
  `machine name` mean_size
           <chr>     <dbl>
1          kanga  10493.82
2           huey  11271.00
3           rooh  11447.63
4          porky  11790.49
5         minnie  11843.20
6          piggy  11901.45
# ... with 31 more rows
```
…
---

## Summarizing by group

```r
trafficSum
```

```
# A tibble: 37 x 7
  `machine name` speedMed sizeMed speedHigh  speedLow sizeHigh
           <chr>    <dbl>   <dbl>     <dbl>     <dbl>    <dbl>
1         animal 2826.361  2070.0  6704.138  990.2539  5189.50
2         beaker 3100.006  2187.0  7278.133 1190.4486  5700.00
3           bugs 2363.094  1806.0  6294.699  692.1716  4670.00
4         bunsen 3399.201  2387.0  8495.322 1198.0713  5747.00
5           cs17 2470.481  1919.0  6276.665  915.1237  4668.00
6           cs18 3129.652  1990.5  7147.696 1188.1948  6222.25
# ... with 31 more rows, and 1 more variables: sizeLow <dbl>
```
…
Here, `right_join`, `inner_join` or `full_join` would give the same.

--

```r
trafficSum
```

```
# A tibble: 37 x 8
  `machine name` speedMed sizeMed speedHigh speedLow sizeHigh
           <chr>    <dbl>   <dbl>     <dbl>    <dbl>    <dbl>
1           cs20 2205.236    2301  5921.257 698.2296     6691
2           bugs 2363.094    1806  6294.699 692.1716     4670
3           cs17 2470.481    1919  6276.665 915.1237     4668
4          pluto 2496.645    2069  6200.783 862.3327     6006
5           cs21 2543.163    2067  6386.004 875.2455     6238
6           cs19 2612.308    2023  6688.195 920.4361     6470
# ... with 31 more rows, and 2 more variables: sizeLow <dbl>, n <int>
```
…
